%YAML 1.1
%TAG !u! tag:unity3d.com,2011:
--- !u!21 &2100000
Material:
  serializedVersion: 6
  m_ObjectHideFlags: 0
  m_PrefabParentObject: {fileID: 0}
  m_PrefabInternal: {fileID: 0}
  m_Name: SupervisionHighlight
  m_Shader: {fileID: 4800000, guid: 9295465fc6e09214ba445069f1636323, type: 3}
  m_ShaderKeywords: 
  m_LightmapFlags: 5
  m_CustomRenderQueue: -1
  stringTagMap: {}
  m_SavedProperties:
    serializedVersion: 2
    m_TexEnvs:
      data:
        first:
          name: _MainTex
        second:
          m_Texture: {fileID: 0}
          m_Scale: {x: 1, y: 1}
          m_Offset: {x: 0, y: 0}
      data:
        first:
          name: _Illum
        second:
          m_Texture: {fileID: 0}
          m_Scale: {x: 1, y: 1}
          m_Offset: {x: 0, y: 0}
    m_Floats:
      data:
        first:
          name: _EmissionLM
        second: 0
      data:
        first:
          name: _SVisionEnabled
        second: 0
    m_Colors:
      data:
        first:
          name: _Color
        second: {r: 0, g: .0843811035, b: .941176474, a: 1}
      data:
        first:
          name: _HColor
        second: {r: 0, g: 1, b: .503000021, a: .392156869}
      data:
        first:
          name: _SColor
        second: {r: .117241383, g: 0, b: 1, a: 1}
