%YAML 1.1
%TAG !u! tag:unity3d.com,2011:
--- !u!74 &7400000
AnimationClip:
  m_ObjectHideFlags: 0
  m_PrefabParentObject: {fileID: 0}
  m_PrefabInternal: {fileID: 0}
  m_Name: ShapesSpinIdle
  serializedVersion: 4
  m_AnimationType: 1
  m_Compressed: 0
  m_UseHighQualityCurve: 1
  m_RotationCurves:
  - curve:
      serializedVersion: 2
      m_Curve:
      - time: 0
        value: {x: -0, y: -0, z: -0, w: -1}
        inSlope: {x: 0, y: -.0783439353, z: 0, w: 5.0067898e-05}
        outSlope: {x: 0, y: -.0783439353, z: 0, w: 5.0067898e-05}
        tangentMode: 540233796
      - time: .833333194
        value: {x: -0, y: -.065240249, z: -0, w: -.997869611}
        inSlope: {x: 0, y: -.0781773031, z: 0, w: .0051105069}
        outSlope: {x: 0, y: -.0781773031, z: 0, w: .0051105069}
        tangentMode: 539778360
      - time: 1.66666579
        value: {x: -0, y: -.130202472, z: -0, w: -.991487443}
        inSlope: {x: 0, y: -.0776772946, z: 0, w: .0102013443}
        outSlope: {x: 0, y: -.0776772946, z: 0, w: .0102013443}
        tangentMode: 0
      - time: 2.49999833
        value: {x: -0, y: -.194609925, z: -0, w: -.980880737}
        inSlope: {x: 0, y: -.0768467039, z: 0, w: .0152474791}
        outSlope: {x: 0, y: -.0768467039, z: 0, w: .0152474791}
        tangentMode: -1
      - time: 3.33333087
        value: {x: -0, y: -.258188188, z: -0, w: -.966094613}
        inSlope: {x: 0, y: -.0756875426, z: 0, w: .0202274509}
        outSlope: {x: 0, y: -.0756875426, z: 0, w: .0202274509}
        tangentMode: 0
      - time: 4.14999866
        value: {x: -0, y: -.319429457, z: -0, w: -.94761008}
        inSlope: {x: 0, y: -.0742389783, z: 0, w: .0250246748}
        outSlope: {x: 0, y: -.0742389783, z: 0, w: .0250246748}
        tangentMode: 1
      - time: 4.96667624
        value: {x: -0, y: -.379364252, z: -0, w: -.925247431}
        inSlope: {x: 0, y: -.0724875182, z: 0, w: .0297202673}
        outSlope: {x: 0, y: -.0724875182, z: 0, w: .0297202673}
        tangentMode: 1953384704
      - time: 5.78335381
        value: {x: -0, y: -.437746555, z: -0, w: -.899098396}
        inSlope: {x: 0, y: -.0704392344, z: 0, w: .0342942663}
        outSlope: {x: 0, y: -.0704392344, z: 0, w: .0342942663}
        tangentMode: 29
      - time: 6.60003138
        value: {x: -0, y: -.494337529, z: -0, w: -.869270027}
        inSlope: {x: 0, y: -.0681030601, z: 0, w: .0387287922}
        outSlope: {x: 0, y: -.0681030601, z: 0, w: .0387287922}
        tangentMode: 169330744
      - time: 7.41670895
        value: {x: -0, y: -.548905551, z: -0, w: -.835884392}
        inSlope: {x: 0, y: -.0654879436, z: 0, w: .0430041775}
        outSlope: {x: 0, y: -.0654879436, z: 0, w: .0430041775}
        tangentMode: 15
      - time: 8.23337936
        value: {x: -0, y: -.601226807, z: -0, w: -.799078405}
        inSlope: {x: 0, y: -.0626037121, z: 0, w: .0471038856}
        outSlope: {x: 0, y: -.0626037121, z: 0, w: .0471038856}
        tangentMode: 0
      - time: 9.06669998
        value: {x: -0, y: -.652077317, z: -0, w: -.758152485}
        inSlope: {x: 0, y: -.0593975298, z: 0, w: .0510861315}
        outSlope: {x: 0, y: -.0593975298, z: 0, w: .0510861315}
        tangentMode: 997666353
      - time: 9.9000206
        value: {x: -0, y: -.700149417, z: -0, w: -.713996351}
        inSlope: {x: 0, y: -.055937428, z: 0, w: .0548520125}
        outSlope: {x: 0, y: -.055937428, z: 0, w: .0548520125}
        tangentMode: 366114720
      - time: 10.7333412
        value: {x: -0, y: -.745238483, z: -0, w: -.666797996}
        inSlope: {x: 0, y: -.0522395, z: 0, w: .058385428}
        outSlope: {x: 0, y: -.0522395, z: 0, w: .058385428}
        tangentMode: 7497078
      - time: 11.5666618
        value: {x: -0, y: -.78715229, z: -0, w: -.616758704}
        inSlope: {x: 0, y: -.0483180508, z: 0, w: .0616667122}
        outSlope: {x: 0, y: -.0483180508, z: 0, w: .0616667122}
        tangentMode: 67895703
      - time: 12.3999825
        value: {x: -0, y: -.825712264, z: -0, w: -.564091563}
        inSlope: {x: 0, y: -.04419275, z: 0, w: .0646887124}
        outSlope: {x: 0, y: -.04419275, z: 0, w: .0646887124}
        tangentMode: 67633548
      - time: 13.2333031
        value: {x: -0, y: -.860754073, z: -0, w: -.509021044}
        inSlope: {x: 0, y: -.0398779064, z: 0, w: .0674353391}
        outSlope: {x: 0, y: -.0398779064, z: 0, w: .0674353391}
        tangentMode: 1092629557
      - time: 14.0666237
        value: {x: -0, y: -.892128527, z: -0, w: -.451781631}
        inSlope: {x: 0, y: -.0353931822, z: 0, w: .0698913857}
        outSlope: {x: 0, y: -.0353931822, z: 0, w: .0698913857}
        tangentMode: 0
      - time: 14.8999443
        value: {x: -0, y: -.919701934, z: -0, w: -.392617345}
        inSlope: {x: 0, y: -.0307600424, z: 0, w: .0720550716}
        outSlope: {x: 0, y: -.0307600424, z: 0, w: .0720550716}
        tangentMode: -1
      - time: 15.7332649
        value: {x: -0, y: -.943356693, z: -0, w: -.331780195}
        inSlope: {x: 0, y: -.0259910021, z: 0, w: .0739022419}
        outSlope: {x: 0, y: -.0259910021, z: 0, w: .0739022419}
        tangentMode: 1701668705
      - time: 16.5665855
        value: {x: -0, y: -.962992132, z: -0, w: -.269529551}
        inSlope: {x: 0, y: -.0211146716, z: 0, w: .0754436404}
        outSlope: {x: 0, y: -.0211146716, z: 0, w: .0754436404}
        tangentMode: 1
      - time: 17.3999062
        value: {x: -0, y: -.978524506, z: -0, w: -.206130534}
        inSlope: {x: 0, y: -.0161507204, z: 0, w: .0766640678}
        outSlope: {x: 0, y: -.0161507204, z: 0, w: .0766640678}
        tangentMode: 1397314816
      - time: 18.2332268
        value: {x: -0, y: -.989887714, z: -0, w: -.141853124}
        inSlope: {x: 0, y: -.0111152437, z: 0, w: .0775545761}
        outSlope: {x: 0, y: -.0111152437, z: 0, w: .0775545761}
        tangentMode: 2276
      - time: 19.0665474
        value: {x: -0, y: -.997033298, z: -0, w: -.0769713372}
        inSlope: {x: 0, y: -.00602969807, z: 0, w: .0781071186}
        outSlope: {x: 0, y: -.00602969807, z: 0, w: .0781071186}
        tangentMode: 169331584
      - time: 19.899868
        value: {x: -0, y: -.999930859, z: -0, w: -.011761589}
        inSlope: {x: 0, y: -.000920905848, z: 0, w: .0783341527}
        outSlope: {x: 0, y: -.000920905848, z: 0, w: .0783341527}
        tangentMode: 15
      - time: 20.7331886
        value: {x: -0, y: -.998567939, z: -0, w: .0534981526}
        inSlope: {x: 0, y: .00419146288, z: 0, w: .0782309473}
        outSlope: {x: 0, y: .00419146288, z: 0, w: .0782309473}
        tangentMode: 0
      - time: 21.5665092
        value: {x: -0, y: -.992950439, z: -0, w: .118530072}
        inSlope: {x: 0, y: .00928594917, z: 0, w: .0777944103}
        outSlope: {x: 0, y: .00928594917, z: 0, w: .0777944103}
        tangentMode: 1533374976
      - time: 22.3998299
        value: {x: -0, y: -.983102322, z: -0, w: .183056846}
        inSlope: {x: 0, y: .0143410964, z: 0, w: .0770225972}
        outSlope: {x: 0, y: .0143410964, z: 0, w: .0770225972}
        tangentMode: 169331576
      - time: 23.2331505
        value: {x: -0, y: -.969065487, z: -0, w: .246803805}
        inSlope: {x: 0, y: .0193336569, z: 0, w: .0759161711}
        outSlope: {x: 0, y: .0193336569, z: 0, w: .0759161711}
        tangentMode: 1769237615
      - time: 24.0664711
        value: {x: -0, y: -.95089972, z: -0, w: .309499085}
        inSlope: {x: 0, y: .0242457502, z: 0, w: .0744932368}
        outSlope: {x: 0, y: .0242457502, z: 0, w: .0744932368}
        tangentMode: 67895342
      - time: 24.8997917
        value: {x: -0, y: -.928682506, z: -0, w: .370875776}
        inSlope: {x: 0, y: .0290559195, z: 0, w: .0727560297}
        outSlope: {x: 0, y: .0290559195, z: 0, w: .0727560297}
        tangentMode: 1377846337
      - time: 25.7331123
        value: {x: -0, y: -.902508378, z: -0, w: .430672288}
        inSlope: {x: 0, y: .0337391272, z: 0, w: .070705004}
        outSlope: {x: 0, y: .0337391272, z: 0, w: .070705004}
        tangentMode: 2016292946
      - time: 26.566433
        value: {x: -0, y: -.872488976, z: -0, w: .488633841}
        inSlope: {x: 0, y: .0382810719, z: 0, w: .0683535635}
        outSlope: {x: 0, y: .0382810719, z: 0, w: .0683535635}
        tangentMode: 0
      - time: 27.3997536
        value: {x: -0, y: -.838752091, z: -0, w: .544513464}
        inSlope: {x: 0, y: .0426585041, z: 0, w: .0657097623}
        outSlope: {x: 0, y: .0426585041, z: 0, w: .0657097623}
        tangentMode: -1
      - time: 28.2330742
        value: {x: -0, y: -.801441729, z: -0, w: .598072886}
        inSlope: {x: 0, y: .0468553305, z: 0, w: .0627878979}
        outSlope: {x: 0, y: .0468553305, z: 0, w: .0627878979}
        tangentMode: 539785262
      - time: 29.0663948
        value: {x: -0, y: -.760716498, z: -0, w: .64908427}
        inSlope: {x: 0, y: .0508554578, z: 0, w: .0596031696}
        outSlope: {x: 0, y: .0508554578, z: 0, w: .0596031696}
        tangentMode: 1
      - time: 29.8997154
        value: {x: -0, y: -.716750085, z: -0, w: .697330117}
        inSlope: {x: 0, y: .0546249151, z: 0, w: .0561484322}
        outSlope: {x: 0, y: .0546249151, z: 0, w: .0561484322}
        tangentMode: 1953384704
      - time: 30.733036
        value: {x: -0, y: -.669729829, z: -0, w: .742604852}
        inSlope: {x: 0, y: .0581780002, z: 0, w: .0524683855}
        outSlope: {x: 0, y: .0581780002, z: 0, w: .0524683855}
        tangentMode: 36
      - time: 31.5663567
        value: {x: -0, y: -.619856238, z: -0, w: .784715414}
        inSlope: {x: 0, y: .0614825338, z: 0, w: .0485648178}
        outSlope: {x: 0, y: .0614825338, z: 0, w: .0485648178}
        tangentMode: 169331944
      - time: 32.3996773
        value: {x: -0, y: -.567341208, z: -0, w: .823482811}
        inSlope: {x: 0, y: .0645152628, z: 0, w: .0444466695}
        outSlope: {x: 0, y: .0645152628, z: 0, w: .0444466695}
        tangentMode: 15
      - time: 33.2329979
        value: {x: -0, y: -.512409329, z: -0, w: .858741343}
        inSlope: {x: 0, y: .0672833472, z: 0, w: .0401461273}
        outSlope: {x: 0, y: .0672833472, z: 0, w: .0401461273}
        tangentMode: 0
      - time: 34.0663185
        value: {x: -0, y: -.455294222, z: -0, w: .890341043}
        inSlope: {x: 0, y: .0697456524, z: 0, w: .0356667712}
        outSlope: {x: 0, y: .0697456524, z: 0, w: .0356667712}
        tangentMode: 1377840177
      - time: 34.8996391
        value: {x: -0, y: -.396238834, z: -0, w: .918147504}
        inSlope: {x: 0, y: .0719307885, z: 0, w: .0310425721}
        outSlope: {x: 0, y: .0719307885, z: 0, w: .0310425721}
        tangentMode: 356616792
      - time: 35.7329597
        value: {x: -0, y: -.335495621, z: -0, w: .942041755}
        inSlope: {x: 0, y: .0738092586, z: 0, w: .0262860507}
        outSlope: {x: 0, y: .0738092586, z: 0, w: .0262860507}
        tangentMode: 1631876206
      - time: 36.5662804
        value: {x: -0, y: -.273322493, z: -0, w: .961922467}
        inSlope: {x: 0, y: .0753595978, z: 0, w: .0214132965}
        outSlope: {x: 0, y: .0753595978, z: 0, w: .0214132965}
        tangentMode: 67895737
      - time: 37.399601
        value: {x: -0, y: -.209985301, z: -0, w: .977704525}
        inSlope: {x: 0, y: .0766032711, z: 0, w: .0164529197}
        outSlope: {x: 0, y: .0766032711, z: 0, w: .0164529197}
        tangentMode: 845114467
      - time: 38.2329216
        value: {x: -0, y: -.145753413, z: -0, w: .989320934}
        inSlope: {x: 0, y: .0774991438, z: 0, w: .0114174439}
        outSlope: {x: 0, y: .0774991438, z: 0, w: .0114174439}
        tangentMode: -1
      - time: 39.0662422
        value: {x: -0, y: -.0809000507, z: -0, w: .996722221}
        inSlope: {x: 0, y: .0780863315, z: 0, w: .00633905083}
        outSlope: {x: 0, y: .0780863315, z: 0, w: .00633905083}
        tangentMode: 0
      - time: 39.8995628
        value: {x: -0, y: -.0157024693, z: -0, w: .999876738}
        inSlope: {x: 0, y: .0783406347, z: 0, w: .00123025861}
        outSlope: {x: 0, y: .0783406347, z: 0, w: .00123025861}
        tangentMode: -1
      - time: 40.0999985
        value: {x: -0, y: 8.74227766e-08, z: -0, w: 1}
        inSlope: {x: 0, y: .0783479959, z: 0, w: 5.22691807e-05}
        outSlope: {x: 0, y: .0783479959, z: 0, w: 5.22691807e-05}
        tangentMode: 824
      m_PreInfinity: 2
      m_PostInfinity: 2
    path: 
  m_CompressedRotationCurves: []
  m_PositionCurves: []
  m_ScaleCurves: []
  m_FloatCurves: []
  m_PPtrCurves: []
  m_SampleRate: 60
  m_WrapMode: 2
  m_Bounds:
    m_Center: {x: 0, y: 0, z: 0}
    m_Extent: {x: 0, y: 0, z: 0}
  m_AnimationClipSettings:
    serializedVersion: 2
    m_StartTime: 0
    m_StopTime: 1
    m_OrientationOffsetY: 0
    m_Level: 0
    m_CycleOffset: 0
    m_LoopTime: 0
    m_LoopBlend: 0
    m_LoopBlendOrientation: 0
    m_LoopBlendPositionY: 0
    m_LoopBlendPositionXZ: 0
    m_KeepOriginalOrientation: 0
    m_KeepOriginalPositionY: 1
    m_KeepOriginalPositionXZ: 0
    m_HeightFromFeet: 0
    m_Mirror: 0
  m_EditorCurves:
  - curve:
      serializedVersion: 2
      m_Curve:
      - time: 0
        value: -0
        inSlope: 0
        outSlope: 0
        tangentMode: 0
      - time: .833333194
        value: -0
        inSlope: 0
        outSlope: 0
        tangentMode: 0
      - time: 1.66666579
        value: -0
        inSlope: 0
        outSlope: 0
        tangentMode: 0
      - time: 2.49999833
        value: -0
        inSlope: 0
        outSlope: 0
        tangentMode: 0
      - time: 3.33333087
        value: -0
        inSlope: 0
        outSlope: 0
        tangentMode: 0
      - time: 4.14999866
        value: -0
        inSlope: 0
        outSlope: 0
        tangentMode: 0
      - time: 4.96667624
        value: -0
        inSlope: 0
        outSlope: 0
        tangentMode: 0
      - time: 5.78335381
        value: -0
        inSlope: 0
        outSlope: 0
        tangentMode: 0
      - time: 6.60003138
        value: -0
        inSlope: 0
        outSlope: 0
        tangentMode: 0
      - time: 7.41670895
        value: -0
        inSlope: 0
        outSlope: 0
        tangentMode: 0
      - time: 8.23337936
        value: -0
        inSlope: 0
        outSlope: 0
        tangentMode: 0
      - time: 9.06669998
        value: -0
        inSlope: 0
        outSlope: 0
        tangentMode: 0
      - time: 9.9000206
        value: -0
        inSlope: 0
        outSlope: 0
        tangentMode: 0
      - time: 10.7333412
        value: -0
        inSlope: 0
        outSlope: 0
        tangentMode: 0
      - time: 11.5666618
        value: -0
        inSlope: 0
        outSlope: 0
        tangentMode: 0
      - time: 12.3999825
        value: -0
        inSlope: 0
        outSlope: 0
        tangentMode: 0
      - time: 13.2333031
        value: -0
        inSlope: 0
        outSlope: 0
        tangentMode: 0
      - time: 14.0666237
        value: -0
        inSlope: 0
        outSlope: 0
        tangentMode: 0
      - time: 14.8999443
        value: -0
        inSlope: 0
        outSlope: 0
        tangentMode: 0
      - time: 15.7332649
        value: -0
        inSlope: 0
        outSlope: 0
        tangentMode: 0
      - time: 16.5665855
        value: -0
        inSlope: 0
        outSlope: 0
        tangentMode: 0
      - time: 17.3999062
        value: -0
        inSlope: 0
        outSlope: 0
        tangentMode: 0
      - time: 18.2332268
        value: -0
        inSlope: 0
        outSlope: 0
        tangentMode: 0
      - time: 19.0665474
        value: -0
        inSlope: 0
        outSlope: 0
        tangentMode: 0
      - time: 19.899868
        value: -0
        inSlope: 0
        outSlope: 0
        tangentMode: 0
      - time: 20.7331886
        value: -0
        inSlope: 0
        outSlope: 0
        tangentMode: 0
      - time: 21.5665092
        value: -0
        inSlope: 0
        outSlope: 0
        tangentMode: 0
      - time: 22.3998299
        value: -0
        inSlope: 0
        outSlope: 0
        tangentMode: 0
      - time: 23.2331505
        value: -0
        inSlope: 0
        outSlope: 0
        tangentMode: 0
      - time: 24.0664711
        value: -0
        inSlope: 0
        outSlope: 0
        tangentMode: 0
      - time: 24.8997917
        value: -0
        inSlope: 0
        outSlope: 0
        tangentMode: 0
      - time: 25.7331123
        value: -0
        inSlope: 0
        outSlope: 0
        tangentMode: 0
      - time: 26.566433
        value: -0
        inSlope: 0
        outSlope: 0
        tangentMode: 0
      - time: 27.3997536
        value: -0
        inSlope: 0
        outSlope: 0
        tangentMode: 0
      - time: 28.2330742
        value: -0
        inSlope: 0
        outSlope: 0
        tangentMode: 0
      - time: 29.0663948
        value: -0
        inSlope: 0
        outSlope: 0
        tangentMode: 0
      - time: 29.8997154
        value: -0
        inSlope: 0
        outSlope: 0
        tangentMode: 0
      - time: 30.733036
        value: -0
        inSlope: 0
        outSlope: 0
        tangentMode: 0
      - time: 31.5663567
        value: -0
        inSlope: 0
        outSlope: 0
        tangentMode: 0
      - time: 32.3996773
        value: -0
        inSlope: 0
        outSlope: 0
        tangentMode: 0
      - time: 33.2329979
        value: -0
        inSlope: 0
        outSlope: 0
        tangentMode: 0
      - time: 34.0663185
        value: -0
        inSlope: 0
        outSlope: 0
        tangentMode: 0
      - time: 34.8996391
        value: -0
        inSlope: 0
        outSlope: 0
        tangentMode: 0
      - time: 35.7329597
        value: -0
        inSlope: 0
        outSlope: 0
        tangentMode: 0
      - time: 36.5662804
        value: -0
        inSlope: 0
        outSlope: 0
        tangentMode: 0
      - time: 37.399601
        value: -0
        inSlope: 0
        outSlope: 0
        tangentMode: 0
      - time: 38.2329216
        value: -0
        inSlope: 0
        outSlope: 0
        tangentMode: 0
      - time: 39.0662422
        value: -0
        inSlope: 0
        outSlope: 0
        tangentMode: 0
      - time: 39.8995628
        value: -0
        inSlope: 0
        outSlope: 0
        tangentMode: 0
      - time: 40.0999985
        value: -0
        inSlope: 0
        outSlope: 0
        tangentMode: 0
      m_PreInfinity: 2
      m_PostInfinity: 2
    attribute: m_LocalRotation.x
    path: 
    classID: 4
    script: {fileID: 0}
  - curve:
      serializedVersion: 2
      m_Curve:
      - time: 0
        value: -0
        inSlope: -.0783439353
        outSlope: -.0783439353
        tangentMode: 0
      - time: .833333194
        value: -.065240249
        inSlope: -.0781773031
        outSlope: -.0781773031
        tangentMode: 0
      - time: 1.66666579
        value: -.130202472
        inSlope: -.0776772946
        outSlope: -.0776772946
        tangentMode: 0
      - time: 2.49999833
        value: -.194609925
        inSlope: -.0768467039
        outSlope: -.0768467039
        tangentMode: 0
      - time: 3.33333087
        value: -.258188188
        inSlope: -.0756875426
        outSlope: -.0756875426
        tangentMode: 0
      - time: 4.14999866
        value: -.319429457
        inSlope: -.0742389783
        outSlope: -.0742389783
        tangentMode: 0
      - time: 4.96667624
        value: -.379364252
        inSlope: -.0724875182
        outSlope: -.0724875182
        tangentMode: 0
      - time: 5.78335381
        value: -.437746555
        inSlope: -.0704392344
        outSlope: -.0704392344
        tangentMode: 0
      - time: 6.60003138
        value: -.494337529
        inSlope: -.0681030601
        outSlope: -.0681030601
        tangentMode: 0
      - time: 7.41670895
        value: -.548905551
        inSlope: -.0654879436
        outSlope: -.0654879436
        tangentMode: 0
      - time: 8.23337936
        value: -.601226807
        inSlope: -.0626037121
        outSlope: -.0626037121
        tangentMode: 0
      - time: 9.06669998
        value: -.652077317
        inSlope: -.0593975298
        outSlope: -.0593975298
        tangentMode: 0
      - time: 9.9000206
        value: -.700149417
        inSlope: -.055937428
        outSlope: -.055937428
        tangentMode: 0
      - time: 10.7333412
        value: -.745238483
        inSlope: -.0522395
        outSlope: -.0522395
        tangentMode: 0
      - time: 11.5666618
        value: -.78715229
        inSlope: -.0483180508
        outSlope: -.0483180508
        tangentMode: 0
      - time: 12.3999825
        value: -.825712264
        inSlope: -.04419275
        outSlope: -.04419275
        tangentMode: 0
      - time: 13.2333031
        value: -.860754073
        inSlope: -.0398779064
        outSlope: -.0398779064
        tangentMode: 0
      - time: 14.0666237
        value: -.892128527
        inSlope: -.0353931822
        outSlope: -.0353931822
        tangentMode: 0
      - time: 14.8999443
        value: -.919701934
        inSlope: -.0307600424
        outSlope: -.0307600424
        tangentMode: 0
      - time: 15.7332649
        value: -.943356693
        inSlope: -.0259910021
        outSlope: -.0259910021
        tangentMode: 0
      - time: 16.5665855
        value: -.962992132
        inSlope: -.0211146716
        outSlope: -.0211146716
        tangentMode: 0
      - time: 17.3999062
        value: -.978524506
        inSlope: -.0161507204
        outSlope: -.0161507204
        tangentMode: 0
      - time: 18.2332268
        value: -.989887714
        inSlope: -.0111152437
        outSlope: -.0111152437
        tangentMode: 0
      - time: 19.0665474
        value: -.997033298
        inSlope: -.00602969807
        outSlope: -.00602969807
        tangentMode: 0
      - time: 19.899868
        value: -.999930859
        inSlope: -.000920905848
        outSlope: -.000920905848
        tangentMode: 0
      - time: 20.7331886
        value: -.998567939
        inSlope: .00419146288
        outSlope: .00419146288
        tangentMode: 0
      - time: 21.5665092
        value: -.992950439
        inSlope: .00928594917
        outSlope: .00928594917
        tangentMode: 0
      - time: 22.3998299
        value: -.983102322
        inSlope: .0143410964
        outSlope: .0143410964
        tangentMode: 0
      - time: 23.2331505
        value: -.969065487
        inSlope: .0193336569
        outSlope: .0193336569
        tangentMode: 0
      - time: 24.0664711
        value: -.95089972
        inSlope: .0242457502
        outSlope: .0242457502
        tangentMode: 0
      - time: 24.8997917
        value: -.928682506
        inSlope: .0290559195
        outSlope: .0290559195
        tangentMode: 0
      - time: 25.7331123
        value: -.902508378
        inSlope: .0337391272
        outSlope: .0337391272
        tangentMode: 0
      - time: 26.566433
        value: -.872488976
        inSlope: .0382810719
        outSlope: .0382810719
        tangentMode: 0
      - time: 27.3997536
        value: -.838752091
        inSlope: .0426585041
        outSlope: .0426585041
        tangentMode: 0
      - time: 28.2330742
        value: -.801441729
        inSlope: .0468553305
        outSlope: .0468553305
        tangentMode: 0
      - time: 29.0663948
        value: -.760716498
        inSlope: .0508554578
        outSlope: .0508554578
        tangentMode: 0
      - time: 29.8997154
        value: -.716750085
        inSlope: .0546249151
        outSlope: .0546249151
        tangentMode: 0
      - time: 30.733036
        value: -.669729829
        inSlope: .0581780002
        outSlope: .0581780002
        tangentMode: 0
      - time: 31.5663567
        value: -.619856238
        inSlope: .0614825338
        outSlope: .0614825338
        tangentMode: 0
      - time: 32.3996773
        value: -.567341208
        inSlope: .0645152628
        outSlope: .0645152628
        tangentMode: 0
      - time: 33.2329979
        value: -.512409329
        inSlope: .0672833472
        outSlope: .0672833472
        tangentMode: 0
      - time: 34.0663185
        value: -.455294222
        inSlope: .0697456524
        outSlope: .0697456524
        tangentMode: 0
      - time: 34.8996391
        value: -.396238834
        inSlope: .0719307885
        outSlope: .0719307885
        tangentMode: 0
      - time: 35.7329597
        value: -.335495621
        inSlope: .0738092586
        outSlope: .0738092586
        tangentMode: 0
      - time: 36.5662804
        value: -.273322493
        inSlope: .0753595978
        outSlope: .0753595978
        tangentMode: 0
      - time: 37.399601
        value: -.209985301
        inSlope: .0766032711
        outSlope: .0766032711
        tangentMode: 0
      - time: 38.2329216
        value: -.145753413
        inSlope: .0774991438
        outSlope: .0774991438
        tangentMode: 0
      - time: 39.0662422
        value: -.0809000507
        inSlope: .0780863315
        outSlope: .0780863315
        tangentMode: 0
      - time: 39.8995628
        value: -.0157024693
        inSlope: .0783406347
        outSlope: .0783406347
        tangentMode: 0
      - time: 40.0999985
        value: 8.74227766e-08
        inSlope: .0783479959
        outSlope: .0783479959
        tangentMode: 0
      m_PreInfinity: 2
      m_PostInfinity: 2
    attribute: m_LocalRotation.y
    path: 
    classID: 4
    script: {fileID: 0}
  - curve:
      serializedVersion: 2
      m_Curve:
      - time: 0
        value: -0
        inSlope: 0
        outSlope: 0
        tangentMode: 0
      - time: .833333194
        value: -0
        inSlope: 0
        outSlope: 0
        tangentMode: 0
      - time: 1.66666579
        value: -0
        inSlope: 0
        outSlope: 0
        tangentMode: 0
      - time: 2.49999833
        value: -0
        inSlope: 0
        outSlope: 0
        tangentMode: 0
      - time: 3.33333087
        value: -0
        inSlope: 0
        outSlope: 0
        tangentMode: 0
      - time: 4.14999866
        value: -0
        inSlope: 0
        outSlope: 0
        tangentMode: 0
      - time: 4.96667624
        value: -0
        inSlope: 0
        outSlope: 0
        tangentMode: 0
      - time: 5.78335381
        value: -0
        inSlope: 0
        outSlope: 0
        tangentMode: 0
      - time: 6.60003138
        value: -0
        inSlope: 0
        outSlope: 0
        tangentMode: 0
      - time: 7.41670895
        value: -0
        inSlope: 0
        outSlope: 0
        tangentMode: 0
      - time: 8.23337936
        value: -0
        inSlope: 0
        outSlope: 0
        tangentMode: 0
      - time: 9.06669998
        value: -0
        inSlope: 0
        outSlope: 0
        tangentMode: 0
      - time: 9.9000206
        value: -0
        inSlope: 0
        outSlope: 0
        tangentMode: 0
      - time: 10.7333412
        value: -0
        inSlope: 0
        outSlope: 0
        tangentMode: 0
      - time: 11.5666618
        value: -0
        inSlope: 0
        outSlope: 0
        tangentMode: 0
      - time: 12.3999825
        value: -0
        inSlope: 0
        outSlope: 0
        tangentMode: 0
      - time: 13.2333031
        value: -0
        inSlope: 0
        outSlope: 0
        tangentMode: 0
      - time: 14.0666237
        value: -0
        inSlope: 0
        outSlope: 0
        tangentMode: 0
      - time: 14.8999443
        value: -0
        inSlope: 0
        outSlope: 0
        tangentMode: 0
      - time: 15.7332649
        value: -0
        inSlope: 0
        outSlope: 0
        tangentMode: 0
      - time: 16.5665855
        value: -0
        inSlope: 0
        outSlope: 0
        tangentMode: 0
      - time: 17.3999062
        value: -0
        inSlope: 0
        outSlope: 0
        tangentMode: 0
      - time: 18.2332268
        value: -0
        inSlope: 0
        outSlope: 0
        tangentMode: 0
      - time: 19.0665474
        value: -0
        inSlope: 0
        outSlope: 0
        tangentMode: 0
      - time: 19.899868
        value: -0
        inSlope: 0
        outSlope: 0
        tangentMode: 0
      - time: 20.7331886
        value: -0
        inSlope: 0
        outSlope: 0
        tangentMode: 0
      - time: 21.5665092
        value: -0
        inSlope: 0
        outSlope: 0
        tangentMode: 0
      - time: 22.3998299
        value: -0
        inSlope: 0
        outSlope: 0
        tangentMode: 0
      - time: 23.2331505
        value: -0
        inSlope: 0
        outSlope: 0
        tangentMode: 0
      - time: 24.0664711
        value: -0
        inSlope: 0
        outSlope: 0
        tangentMode: 0
      - time: 24.8997917
        value: -0
        inSlope: 0
        outSlope: 0
        tangentMode: 0
      - time: 25.7331123
        value: -0
        inSlope: 0
        outSlope: 0
        tangentMode: 0
      - time: 26.566433
        value: -0
        inSlope: 0
        outSlope: 0
        tangentMode: 0
      - time: 27.3997536
        value: -0
        inSlope: 0
        outSlope: 0
        tangentMode: 0
      - time: 28.2330742
        value: -0
        inSlope: 0
        outSlope: 0
        tangentMode: 0
      - time: 29.0663948
        value: -0
        inSlope: 0
        outSlope: 0
        tangentMode: 0
      - time: 29.8997154
        value: -0
        inSlope: 0
        outSlope: 0
        tangentMode: 0
      - time: 30.733036
        value: -0
        inSlope: 0
        outSlope: 0
        tangentMode: 0
      - time: 31.5663567
        value: -0
        inSlope: 0
        outSlope: 0
        tangentMode: 0
      - time: 32.3996773
        value: -0
        inSlope: 0
        outSlope: 0
        tangentMode: 0
      - time: 33.2329979
        value: -0
        inSlope: 0
        outSlope: 0
        tangentMode: 0
      - time: 34.0663185
        value: -0
        inSlope: 0
        outSlope: 0
        tangentMode: 0
      - time: 34.8996391
        value: -0
        inSlope: 0
        outSlope: 0
        tangentMode: 0
      - time: 35.7329597
        value: -0
        inSlope: 0
        outSlope: 0
        tangentMode: 0
      - time: 36.5662804
        value: -0
        inSlope: 0
        outSlope: 0
        tangentMode: 0
      - time: 37.399601
        value: -0
        inSlope: 0
        outSlope: 0
        tangentMode: 0
      - time: 38.2329216
        value: -0
        inSlope: 0
        outSlope: 0
        tangentMode: 0
      - time: 39.0662422
        value: -0
        inSlope: 0
        outSlope: 0
        tangentMode: 0
      - time: 39.8995628
        value: -0
        inSlope: 0
        outSlope: 0
        tangentMode: 0
      - time: 40.0999985
        value: -0
        inSlope: 0
        outSlope: 0
        tangentMode: 0
      m_PreInfinity: 2
      m_PostInfinity: 2
    attribute: m_LocalRotation.z
    path: 
    classID: 4
    script: {fileID: 0}
  - curve:
      serializedVersion: 2
      m_Curve:
      - time: 0
        value: -1
        inSlope: 5.0067898e-05
        outSlope: 5.0067898e-05
        tangentMode: 0
      - time: .833333194
        value: -.997869611
        inSlope: .0051105069
        outSlope: .0051105069
        tangentMode: 0
      - time: 1.66666579
        value: -.991487443
        inSlope: .0102013443
        outSlope: .0102013443
        tangentMode: 0
      - time: 2.49999833
        value: -.980880737
        inSlope: .0152474791
        outSlope: .0152474791
        tangentMode: 0
      - time: 3.33333087
        value: -.966094613
        inSlope: .0202274509
        outSlope: .0202274509
        tangentMode: 0
      - time: 4.14999866
        value: -.94761008
        inSlope: .0250246748
        outSlope: .0250246748
        tangentMode: 0
      - time: 4.96667624
        value: -.925247431
        inSlope: .0297202673
        outSlope: .0297202673
        tangentMode: 0
      - time: 5.78335381
        value: -.899098396
        inSlope: .0342942663
        outSlope: .0342942663
        tangentMode: 0
      - time: 6.60003138
        value: -.869270027
        inSlope: .0387287922
        outSlope: .0387287922
        tangentMode: 0
      - time: 7.41670895
        value: -.835884392
        inSlope: .0430041775
        outSlope: .0430041775
        tangentMode: 0
      - time: 8.23337936
        value: -.799078405
        inSlope: .0471038856
        outSlope: .0471038856
        tangentMode: 0
      - time: 9.06669998
        value: -.758152485
        inSlope: .0510861315
        outSlope: .0510861315
        tangentMode: 0
      - time: 9.9000206
        value: -.713996351
        inSlope: .0548520125
        outSlope: .0548520125
        tangentMode: 0
      - time: 10.7333412
        value: -.666797996
        inSlope: .058385428
        outSlope: .058385428
        tangentMode: 0
      - time: 11.5666618
        value: -.616758704
        inSlope: .0616667122
        outSlope: .0616667122
        tangentMode: 0
      - time: 12.3999825
        value: -.564091563
        inSlope: .0646887124
        outSlope: .0646887124
        tangentMode: 0
      - time: 13.2333031
        value: -.509021044
        inSlope: .0674353391
        outSlope: .0674353391
        tangentMode: 0
      - time: 14.0666237
        value: -.451781631
        inSlope: .0698913857
        outSlope: .0698913857
        tangentMode: 0
      - time: 14.8999443
        value: -.392617345
        inSlope: .0720550716
        outSlope: .0720550716
        tangentMode: 0
      - time: 15.7332649
        value: -.331780195
        inSlope: .0739022419
        outSlope: .0739022419
        tangentMode: 0
      - time: 16.5665855
        value: -.269529551
        inSlope: .0754436404
        outSlope: .0754436404
        tangentMode: 0
      - time: 17.3999062
        value: -.206130534
        inSlope: .0766640678
        outSlope: .0766640678
        tangentMode: 0
      - time: 18.2332268
        value: -.141853124
        inSlope: .0775545761
        outSlope: .0775545761
        tangentMode: 0
      - time: 19.0665474
        value: -.0769713372
        inSlope: .0781071186
        outSlope: .0781071186
        tangentMode: 0
      - time: 19.899868
        value: -.011761589
        inSlope: .0783341527
        outSlope: .0783341527
        tangentMode: 0
      - time: 20.7331886
        value: .0534981526
        inSlope: .0782309473
        outSlope: .0782309473
        tangentMode: 0
      - time: 21.5665092
        value: .118530072
        inSlope: .0777944103
        outSlope: .0777944103
        tangentMode: 0
      - time: 22.3998299
        value: .183056846
        inSlope: .0770225972
        outSlope: .0770225972
        tangentMode: 0
      - time: 23.2331505
        value: .246803805
        inSlope: .0759161711
        outSlope: .0759161711
        tangentMode: 0
      - time: 24.0664711
        value: .309499085
        inSlope: .0744932368
        outSlope: .0744932368
        tangentMode: 0
      - time: 24.8997917
        value: .370875776
        inSlope: .0727560297
        outSlope: .0727560297
        tangentMode: 0
      - time: 25.7331123
        value: .430672288
        inSlope: .070705004
        outSlope: .070705004
        tangentMode: 0
      - time: 26.566433
        value: .488633841
        inSlope: .0683535635
        outSlope: .0683535635
        tangentMode: 0
      - time: 27.3997536
        value: .544513464
        inSlope: .0657097623
        outSlope: .0657097623
        tangentMode: 0
      - time: 28.2330742
        value: .598072886
        inSlope: .0627878979
        outSlope: .0627878979
        tangentMode: 0
      - time: 29.0663948
        value: .64908427
        inSlope: .0596031696
        outSlope: .0596031696
        tangentMode: 0
      - time: 29.8997154
        value: .697330117
        inSlope: .0561484322
        outSlope: .0561484322
        tangentMode: 0
      - time: 30.733036
        value: .742604852
        inSlope: .0524683855
        outSlope: .0524683855
        tangentMode: 0
      - time: 31.5663567
        value: .784715414
        inSlope: .0485648178
        outSlope: .0485648178
        tangentMode: 0
      - time: 32.3996773
        value: .823482811
        inSlope: .0444466695
        outSlope: .0444466695
        tangentMode: 0
      - time: 33.2329979
        value: .858741343
        inSlope: .0401461273
        outSlope: .0401461273
        tangentMode: 0
      - time: 34.0663185
        value: .890341043
        inSlope: .0356667712
        outSlope: .0356667712
        tangentMode: 0
      - time: 34.8996391
        value: .918147504
        inSlope: .0310425721
        outSlope: .0310425721
        tangentMode: 0
      - time: 35.7329597
        value: .942041755
        inSlope: .0262860507
        outSlope: .0262860507
        tangentMode: 0
      - time: 36.5662804
        value: .961922467
        inSlope: .0214132965
        outSlope: .0214132965
        tangentMode: 0
      - time: 37.399601
        value: .977704525
        inSlope: .0164529197
        outSlope: .0164529197
        tangentMode: 0
      - time: 38.2329216
        value: .989320934
        inSlope: .0114174439
        outSlope: .0114174439
        tangentMode: 0
      - time: 39.0662422
        value: .996722221
        inSlope: .00633905083
        outSlope: .00633905083
        tangentMode: 0
      - time: 39.8995628
        value: .999876738
        inSlope: .00123025861
        outSlope: .00123025861
        tangentMode: 0
      - time: 40.0999985
        value: 1
        inSlope: 5.22691807e-05
        outSlope: 5.22691807e-05
        tangentMode: 0
      m_PreInfinity: 2
      m_PostInfinity: 2
    attribute: m_LocalRotation.w
    path: 
    classID: 4
    script: {fileID: 0}
  m_EulerEditorCurves:
  - curve:
      serializedVersion: 2
      m_Curve:
      - time: 0
        value: 0
        inSlope: 0
        outSlope: 0
        tangentMode: 10
      - time: 40.0999985
        value: 0
        inSlope: 0
        outSlope: 0
        tangentMode: 10
      m_PreInfinity: 2
      m_PostInfinity: 2
    attribute: localEulerAnglesBaked.x
    path: 
    classID: 4
    script: {fileID: 0}
  - curve:
      serializedVersion: 2
      m_Curve:
      - time: 0
        value: 0
        inSlope: 8.97755623
        outSlope: 8.97755623
        tangentMode: 10
      - time: 40.0999985
        value: 360
        inSlope: 8.97755623
        outSlope: 8.97755623
        tangentMode: 10
      m_PreInfinity: 2
      m_PostInfinity: 2
    attribute: localEulerAnglesBaked.y
    path: 
    classID: 4
    script: {fileID: 0}
  - curve:
      serializedVersion: 2
      m_Curve:
      - time: 0
        value: 0
        inSlope: 0
        outSlope: 0
        tangentMode: 10
      - time: 40.0999985
        value: 0
        inSlope: 0
        outSlope: 0
        tangentMode: 10
      m_PreInfinity: 2
      m_PostInfinity: 2
    attribute: localEulerAnglesBaked.z
    path: 
    classID: 4
    script: {fileID: 0}
  m_Events: []
--- !u!1002 &7400001
EditorExtensionImpl:
  serializedVersion: 6
